…
...run started 2023-10-14 14:38:02 PDT ...
 dir_wd = C:/users/selene.fregosi/documents/github/cruise-maps-live 
 Processing 2 new das files:
  DASALL.A12 
   saved newEffortTracks_OES2303_leg4_DASALL.A12_ran2023-10-14.Rda 
   saved compiledEffortTracks_OES2303.Rda and as .csv
   saved effortTracks_OES2303_leg4_DASALL.A12.gpx 
# A dribble: 59 × 3
   name       id       drive_resource   
   <chr>      <drv_id> <list>           
 1 DASALL.723 1A4Biik… <named list [40]>
 2 DASALL.724 1f2T4a9… <named list [40]>
 3 DASALL.725 1P_V96m… <named list [40]>
 4 DASALL.726 1HiP7mv… <named list [40]>
 5 DASALL.727 1he2sdi… <named list [40]>
 6 DASALL.728 1YFD5yS… <named list [40]>
 7 DASALL.804 1NoWZWn… <named list [40]>
 8 DASALL.805 1_0txFh… <named list [40]>
 9 DASALL.806 1g4kauv… <named list [40]>
10 DASALL.807 14EiDjs… <named list [40]>
# ℹ 49 more rows
# ℹ Use `print(n = ...)` to see more rows
…
